{
  "results": [
    {
      "vote_count": 2079,
      "id": 351286,
      "video": false,
      "vote_average": 6.6,
      "title": "Jurassic World : Fallen Kingdom",
      "popularity": 225.727,
      "poster_path": "/9EwjVrXqYmm3Q5xWJyG1TmtTF8j.jpg",
      "original_language": "en",
      "original_title": "Jurassic World: Fallen Kingdom",
      "genre_ids": [
        28,
        12,
        878
      ],
      "backdrop_path": "/3s9O5af2xWKWR5JzP2iJZpZeQQg.jpg",
      "adult": false,
      "overview": "Cela fait maintenant quatre ans que les dinosaures se sont échappés de leurs enclos et ont détruit le parc à thème et complexe de luxe Jurassic World. Isla Nublar a été abandonnée par les humains alors que les dinosaures survivants sont livrés à eux-mêmes dans la jungle. Lorsque le volcan inactif de l'île commence à rugir, Owen et Claire s’organisent pour sauver les dinosaures restants de l’extinction.  Owen se fait un devoir de retrouver Blue, son principal raptor qui a disparu dans la nature, alors que Claire, qui a maintenant un véritable respect pour ces créatures, s’en fait une mission. Arrivant sur l'île instable alors que la lave commence à pleuvoir, leur expédition découvre une conspiration qui pourrait ramener toute notre planète à un ordre périlleux jamais vu depuis la préhistoire.",
      "release_date": "2018-06-06"
    },
    {
      "vote_count": 739,
      "id": 363088,
      "video": false,
      "vote_average": 7,
      "title": "Ant-Man et la Guêpe",
      "popularity": 183.768,
      "poster_path": "/r3Vapr4sdXOhHBThTNtfuijKe5V.jpg",
      "original_language": "en",
      "original_title": "Ant-Man and the Wasp",
      "genre_ids": [
        28,
        12,
        14,
        35,
        878
      ],
      "backdrop_path": "/6P3c80EOm7BodndGBUAJHHsHKrp.jpg",
      "adult": false,
      "overview": "Après les événements survenus dans Captain America : Civil War, Scott Lang a bien du mal à concilier sa vie de super-héros et ses responsabilités de père. Mais ses réflexions sur les conséquences de ses choix tournent court lorsque Hope van Dyne et le Dr Hank Pym lui confient une nouvelle mission urgente… Scott va devoir renfiler son costume et apprendre à se battre aux côtés de La Guêpe afin de faire la lumière sur des secrets enfouis de longue date…",
      "release_date": "2018-07-04"
    },
    {
      "vote_count": 1288,
      "id": 260513,
      "video": false,
      "vote_average": 7.7,
      "title": "Les Indestructibles 2",
      "popularity": 135.342,
      "poster_path": "/Apish2YD3QIAepzxZ96VLkqEZo3.jpg",
      "original_language": "en",
      "original_title": "Incredibles 2",
      "genre_ids": [
        28,
        12,
        16,
        10751
      ],
      "backdrop_path": "/mabuNsGJgRuCTuGqjFkWe1xdu19.jpg",
      "adult": false,
      "overview": "Notre famille de super-héros préférée est de retour! Cette fois c’est Hélène qui se retrouve sur le devant de la scène laissant à Bob le soin de mener à bien les mille et une missions de la vie quotidienne et de s’occuper de Violette, Flèche et de bébé Jack-Jack. C’est un changement de rythme difficile pour la famille d’autant que personne ne mesure réellement l’étendue des incroyables pouvoirs du petit dernier… Lorsqu’un nouvel ennemi fait surface, la famille et Frozone vont devoir s’allier comme jamais pour déjouer son plan machiavélique.",
      "release_date": "2018-06-14"
    },
    {
      "vote_count": 316,
      "id": 442249,
      "video": false,
      "vote_average": 6.2,
      "title": "American Nightmare 4 : Les Origines",
      "popularity": 120.245,
      "poster_path": "/cDpWqGxQ2QU1qBuzDNIl0mtLsdq.jpg",
      "original_language": "en",
      "original_title": "The First Purge",
      "genre_ids": [
        28,
        27,
        878,
        53
      ],
      "backdrop_path": "/dnaitaoCh8MftfYEVnprcuYExZp.jpg",
      "adult": false,
      "overview": "Derrière chaque tradition se dissimule une révolution. Cette année, lors de Fête de l’Indépendance, découvrez comment sont nées les 12 heures d’anarchie annuelle. Soyez les bienvenus dans le mouvement qui a commencé comme une simple expérience : AMERICAN NIGHTMARE 4 : LES ORIGINES.  Pour faire passer le taux de criminalité en-dessous de 1 % le reste de l’année, les « Nouveaux Pères Fondateurs » testent une théorie sociale qui permettrait d’évacuer la violence durant une nuit dans une ville isolée. Mais lorsque l’agressivité des tyrans rencontre la rage de communautés marginalisées, le phénomène va s’étendre au-delà des frontières de la ville test jusqu’à atteindre la nation entière...",
      "release_date": "2018-07-04"
    },
    {
      "vote_count": 147,
      "id": 400155,
      "video": false,
      "vote_average": 7.1,
      "title": "Hotel Transylvanie 3 : Des vacances monstrueuses",
      "popularity": 77.724,
      "poster_path": "/q9SVB20lHyPtQdf7ZQ8Tttsmtsf.jpg",
      "original_language": "en",
      "original_title": "Hotel Transylvania 3: Summer Vacation",
      "genre_ids": [
        10751,
        14,
        35,
        16
      ],
      "backdrop_path": "/m03jul0YdVEOFXEQVUv6pOVQYGL.jpg",
      "adult": false,
      "overview": "Notre famille de monstres préférée s’embarque pour une croisière de rêve afin que Drac puisse enfin souffler un peu et savourer des vacances au lieu de s’occuper de tout le monde à l’hôtel. Tout s’annonce à merveille pour la petite famille, entre matchs de volley monstres, excursions exotiques et séances de bronzette au clair de lune… Mais les vacances idéales virent vite au cauchemar lorsque Mavis se rend compte que Drac est tombé sous le charme de la mystérieuse Ericka, la capitaine du navire, dont le terrible secret peut détruire tous les monstres…",
      "release_date": "2018-06-30"
    },
    {
      "vote_count": 2292,
      "id": 447332,
      "video": false,
      "vote_average": 7.2,
      "title": "Sans un bruit",
      "popularity": 75.753,
      "poster_path": "/xlJCSHnR7sbaibX3OY97vEmsjxt.jpg",
      "original_language": "en",
      "original_title": "A Quiet Place",
      "genre_ids": [
        18,
        27,
        53,
        878
      ],
      "backdrop_path": "/roYyPiQDQKmIKUEhO912693tSja.jpg",
      "adult": false,
      "overview": "Une famille tente de survivre sous la menace de mystérieuses créatures qui attaquent au moindre bruit. S’ils vous entendent, il est déjà trop tard.",
      "release_date": "2018-04-03"
    },
    {
      "vote_count": 176,
      "id": 447200,
      "video": false,
      "vote_average": 6.1,
      "title": "Skyscraper",
      "popularity": 64.256,
      "poster_path": "/3NL1FiTEhU4SWOuWk8lkVCbmnYm.jpg",
      "original_language": "en",
      "original_title": "Skyscraper",
      "genre_ids": [
        28,
        53,
        18
      ],
      "backdrop_path": "/oMKFQmoVgB69fyXfSMu0lGlHJP2.jpg",
      "adult": false,
      "overview": "Will Ford, ancien leader de l’équipe de libération d’otages du FBI, ancien vétéran de guerre, et maintenant responsable de la sécurité des gratte-ciels est affecté en Chine. Il découvre le bâtiment le plus grand et le plus sûr du monde soudainement en feu et est accusé de l’avoir déclenché. Désormais considéré comme un fugitif, Will doit trouver les coupables, rétablir sa réputation et sauver sa famille emprisonnée à l’intérieur du bâtiment…au-dessus de la ligne de feu.",
      "release_date": "2018-07-11"
    },
    {
      "vote_count": 109,
      "id": 454619,
      "video": false,
      "vote_average": 6,
      "title": "Overboard",
      "popularity": 57.858,
      "poster_path": "/qauHzSQJdo9VYX4NKn9PdWnvXOV.jpg",
      "original_language": "en",
      "original_title": "Overboard",
      "genre_ids": [
        10749,
        35
      ],
      "backdrop_path": "/z8MX81fDkYc7hYPpTa6PmHj9url.jpg",
      "adult": false,
      "overview": "Leonardo, un riche playboy renvoie Kate, une de ses employées. Quand celui-ci perd la mémoire à la suite d'un accident, elle se fait passer pour sa femme…",
      "release_date": "2018-05-03"
    },
    {
      "vote_count": 10,
      "id": 493006,
      "video": false,
      "vote_average": 4.5,
      "title": "Detective Conan : Zero's Executioner",
      "popularity": 55.526,
      "poster_path": "/mMWV5MXn2pkDnnI4vWpy3dRWdNC.jpg",
      "original_language": "ja",
      "original_title": "名探偵コナン ゼロの執行人",
      "genre_ids": [
        16,
        80,
        9648,
        28,
        18
      ],
      "backdrop_path": "/kEqeponciiz6TyuKWtnKSzXzbGa.jpg",
      "adult": false,
      "overview": "",
      "release_date": "2018-04-13"
    },
    {
      "vote_count": 39,
      "id": 345887,
      "video": false,
      "vote_average": 5.8,
      "title": "Equalizer 2",
      "popularity": 54.163,
      "poster_path": "/cQvc9N6JiMVKqol3wcYrGshsIdZ.jpg",
      "original_language": "en",
      "original_title": "The Equalizer 2",
      "genre_ids": [
        53,
        28,
        80
      ],
      "backdrop_path": "/z6KLDE72SxE1A8JcJTmmnWArOvR.jpg",
      "adult": false,
      "overview": "Robert McCall sert inlassablement la justice au nom des exploités et des opprimés. Mais jusqu’où est-il prêt à aller lorsque cela touche quelqu’un qu’il aime ?",
      "release_date": "2018-07-19"
    },
    {
      "vote_count": 65,
      "id": 458423,
      "video": false,
      "vote_average": 7.2,
      "title": "Mamma Mia ! Here We Go Again",
      "popularity": 51.149,
      "poster_path": "/5j6ko6vcEMZX4DlPYlQ19cW0s2a.jpg",
      "original_language": "en",
      "original_title": "Mamma Mia! Here We Go Again",
      "genre_ids": [
        35,
        10749,
        10402
      ],
      "backdrop_path": "/8HKwxHZ23sW8wz4yb28IWnAM1M6.jpg",
      "adult": false,
      "overview": "Sur l'île paradisiaque de Kalokairi, Sophie, qui a du mal à gérer sa grossesse, va trouver le réconfort auprès des amies de sa mère Donna, qui vont lui conseiller de prendre exemple sur le parcours de cette dernière.",
      "release_date": "2018-07-18"
    },
    {
      "vote_count": 714,
      "id": 460019,
      "video": false,
      "vote_average": 6.1,
      "title": "Action ou Vérité",
      "popularity": 40.495,
      "poster_path": "/rKDPapQ38mkcAjcUIINeAklBXI7.jpg",
      "original_language": "en",
      "original_title": "Truth or Dare",
      "genre_ids": [
        53,
        27
      ],
      "backdrop_path": "/eQ5xu2pQ5Kergubto5PbbUzey28.jpg",
      "adult": false,
      "overview": "Un simple jeu innocent d’Action ou Vérité entre amis se transforme en cauchemar sanglant quand quelqu'un – ou quelque chose – commence à punir ceux qui mentent – ou refusent de jouer.",
      "release_date": "2018-04-12"
    },
    {
      "vote_count": 229,
      "id": 460668,
      "video": false,
      "vote_average": 6.3,
      "title": "Moi, belle et jolie",
      "popularity": 39.287,
      "poster_path": "/mj0iOuvE7B9YSHyzY4pzCnosLyk.jpg",
      "original_language": "en",
      "original_title": "I Feel Pretty",
      "genre_ids": [
        35
      ],
      "backdrop_path": "/3Zb4Du20mvKl0jlOtQ6lCFhpiiT.jpg",
      "adult": false,
      "overview": "Après une chute à la gym, une trentenaire sans confiance en elle se découvre soudain courageuse et sexy... même sur scène !",
      "release_date": "2018-04-19"
    },
    {
      "vote_count": 5,
      "id": 476292,
      "video": false,
      "vote_average": 6.6,
      "title": "Maquia : When the promised Flower blooms",
      "popularity": 38.553,
      "poster_path": "/vOrK1n6VgVCFBwgcq5tMoPCqa47.jpg",
      "original_language": "ja",
      "original_title": "さよならの朝に約束の花をかざろう",
      "genre_ids": [
        16
      ],
      "backdrop_path": "/cfbjFQ14hSTgXChBEvaEjFiUaKb.jpg",
      "adult": false,
      "overview": "Maquia est issue du peuple Iolph qui cesse de vieillir au milieu de l’adolescence. Elle n’a pas de parents et, bien que ses journées soient paisibles, elle se sent seule. Un jour, sa paix se voit rompue par une invasion d’ennemis, semant chaos et destruction sur leur passage, cherchant le secret de l’immortalité. Ayant tout perdu, Maquia rencontre Erial, un bébé orphelin. L’histoire suit l’évolution de la relation entre les deux à mesure que Erial grandit et que Maquia ne vieillit pas.",
      "release_date": "2018-02-24"
    },
    {
      "vote_count": 1233,
      "id": 348350,
      "video": false,
      "vote_average": 6.8,
      "title": "Solo: A Star Wars Story",
      "popularity": 38.549,
      "poster_path": "/xcKR6cAhdGmZQxyFfBqW5oPUF6E.jpg",
      "original_language": "en",
      "original_title": "Solo: A Star Wars Story",
      "genre_ids": [
        28,
        12,
        878
      ],
      "backdrop_path": "/7LZ0K4FsALrt7OeNIGOVLNuKQRU.jpg",
      "adult": false,
      "overview": "Spin-off de la saga Star Wars : Au cours de périlleuses aventures dans les bas-fonds d’un monde criminel, Han Solo va faire la connaissance de son imposant futur copilote Chewbacca et croiser la route du charmant escroc Lando Calrissian…",
      "release_date": "2018-05-23"
    },
    {
      "vote_count": 202,
      "id": 419831,
      "video": false,
      "vote_average": 6.2,
      "title": "Chasseuse de géants",
      "popularity": 37.258,
      "poster_path": "/a4AqVHAKMYUwQZjaH3Olol2UglH.jpg",
      "original_language": "en",
      "original_title": "I Kill Giants",
      "genre_ids": [
        18,
        14
      ],
      "backdrop_path": "/lffgWEBiLf9DbDdb86WsGsEcWTg.jpg",
      "adult": false,
      "overview": "Barbara est une adolescente solitaire différente des autres, et en conflit permanent avec son entourage. Ses journées au collège sont rythmées par les allers-retours entre le bureau du proviseur et la psychologue. Aux sources de l’inquiétude des adultes qui veillent sur elle, il y a son obsession pour les Géants, des créatures fantastiques venues d’un autre monde pour semer le chaos. Armée de son marteau légendaire, Barbara s’embarque dans un combat épique pour les empêcher d’envahir le monde…",
      "release_date": "2018-01-21"
    },
    {
      "vote_count": 169,
      "id": 440471,
      "video": false,
      "vote_average": 4.5,
      "title": "Évasion 2",
      "popularity": 37.018,
      "poster_path": "/meBv22P1JiIunBFOwhZYOGEkLYh.jpg",
      "original_language": "en",
      "original_title": "Escape Plan 2: Hades",
      "genre_ids": [
        80,
        28,
        53
      ],
      "backdrop_path": "/xIAaN3AQqaJiN5RJ0WsmBady8Hq.jpg",
      "adult": false,
      "overview": "Ray Breslin dirige une équipe d'élite formée de spécialistes de la sécurité formés à l'art de faire sortir les gens des prisons les plus impénétrables du monde. Lorsque son agent le plus fiable, Shu Ren, est kidnappé et disparaît dans la prison la plus élaborée jamais construite, entièrement informatisée et en constante évolution, Ray doit le traquer avec l'aide de certains de ses anciens amis.",
      "release_date": "2018-06-05"
    },
    {
      "vote_count": 783,
      "id": 429351,
      "video": false,
      "vote_average": 5.1,
      "title": "Horse Soldiers",
      "popularity": 36.271,
      "poster_path": "/onQTiwGNXr46bq2R39JIIAy26fu.jpg",
      "original_language": "en",
      "original_title": "12 Strong",
      "genre_ids": [
        10752,
        18,
        36
      ],
      "backdrop_path": "/wacEk5YSNE41QeKseilyytksXmv.jpg",
      "adult": false,
      "overview": "Quelques semaines après les attentats du 11 septembre 2001, un détachement d'élite des Forces Spéciales a été envoyé en Afghanistan, en plein conflit, pour une périlleuse mission top-secrète : apporter leur aide aux Afghans dans leur lutte contre les talibans et leurs alliés d'Al Quaïda.",
      "release_date": "2018-01-16"
    },
    {
      "vote_count": 666,
      "id": 399174,
      "video": false,
      "vote_average": 7.9,
      "title": "L'Île aux chiens",
      "popularity": 35.774,
      "poster_path": "/i6PeSvCdpFnbWYi0M4BfyHMG0YG.jpg",
      "original_language": "en",
      "original_title": "Isle of Dogs",
      "genre_ids": [
        12,
        35,
        16
      ],
      "backdrop_path": "/5YtXsLG9ncjjFyGZjoeV31CGf01.jpg",
      "adult": false,
      "overview": "Lorsqu’une épidémie de grippe canine envahit la ville japonaise de Megasaki et menace de contaminer les hommes, le maire ordonne la mise en quarantaine de tous les chiens. L’île poubelle devient : l’Île aux Chiens. Un jeune garçon de 12 ans, Atari, se rend sur place à la recherche de son chien perdu, Spots. C’est alors qu’il fait la découverte,  à l’aide d’une meute de cinq chiens, d’une conspiration qui menace la ville.",
      "release_date": "2018-03-23"
    },
    {
      "vote_count": 1301,
      "id": 449176,
      "video": false,
      "vote_average": 8.3,
      "title": "Love, Simon",
      "popularity": 34.921,
      "poster_path": "/qnA8dIE9yrI4KGO9qgemu79YBCR.jpg",
      "original_language": "en",
      "original_title": "Love, Simon",
      "genre_ids": [
        35,
        18,
        10749
      ],
      "backdrop_path": "/rqMEeajyzSF4PpJtdCB816Iz8Vr.jpg",
      "adult": false,
      "overview": "Pourtant pour Simon, c’est compliqué. Il a une vie normale, dans une famille  qu'il adore et entouré d'amis extraordinaires, mais il garde pour lui un grand secret: personne ne sait qu’il est gay et il ne connait pas l’identité de son premier coup de cœur, avec qui il communique en ligne. Alors que son secret est menacé d’être révélé, la  vie  de Simon bascule dans une aventure aussi drôle que bouleversante... Ses amis prendront alors une place essentielle pour l’aider à changer sa vie et découvrir le premier amour.",
      "release_date": "2018-02-16"
    }
  ],
  "page": 1,
  "total_results": 855,
  "dates": {
    "maximum": "2018-07-22",
    "minimum": "2018-06-04"
  },
  "total_pages": 43
}