{
  "results": [
    {
      "vote_count": 72,
      "id": 353081,
      "video": false,
      "vote_average": 6.8,
      "title": "Mission: Impossible - Fallout",
      "popularity": 274.009,
      "poster_path": "/AkJQpZp9WoNdj7pLYSj1L0RcMMN.jpg",
      "original_language": "en",
      "original_title": "Mission: Impossible - Fallout",
      "genre_ids": [
        12,
        28,
        53
      ],
      "backdrop_path": "/5qxePyMYDisLe8rJiBYX8HKEyv2.jpg",
      "adult": false,
      "overview": "When an IMF mission ends badly, the world is faced with dire consequences. As Ethan Hunt takes it upon himself to fulfil his original briefing, the CIA begin to question his loyalty and his motives. The IMF team find themselves in a race against time, hunted by assassins while trying to prevent a global catastrophe.",
      "release_date": "2018-07-25"
    },
    {
      "vote_count": 823,
      "id": 363088,
      "video": false,
      "vote_average": 7,
      "title": "Ant-Man and the Wasp",
      "popularity": 136.14,
      "poster_path": "/rv1AWImgx386ULjcf62VYaW8zSt.jpg",
      "original_language": "en",
      "original_title": "Ant-Man and the Wasp",
      "genre_ids": [
        28,
        12,
        14,
        35,
        878
      ],
      "backdrop_path": "/6P3c80EOm7BodndGBUAJHHsHKrp.jpg",
      "adult": false,
      "overview": "As Scott Lang awaits expiration of his term of house detention, Hope van Dyne and Dr. Hank Pym involve him in a scheme to rescue Mrs. van Dyne from the micro-universe into which she has fallen, while two groups of schemers converge on them with intentions of stealing Dr. Pym's inventions.",
      "release_date": "2018-07-04"
    },
    {
      "vote_count": 1367,
      "id": 260513,
      "video": false,
      "vote_average": 7.7,
      "title": "Incredibles 2",
      "popularity": 84.91,
      "poster_path": "/x1txcDXkcM65gl7w20PwYSxAYah.jpg",
      "original_language": "en",
      "original_title": "Incredibles 2",
      "genre_ids": [
        28,
        12,
        16,
        10751
      ],
      "backdrop_path": "/mabuNsGJgRuCTuGqjFkWe1xdu19.jpg",
      "adult": false,
      "overview": "Elastigirl springs into action to save the day, while Mr. Incredible faces his greatest challenge yet – taking care of the problems of his three children.",
      "release_date": "2018-06-14"
    },
    {
      "vote_count": 352,
      "id": 442249,
      "video": false,
      "vote_average": 6.2,
      "title": "The First Purge",
      "popularity": 78.121,
      "poster_path": "/2slvblTroiT1lY9bYLK7Amigo1k.jpg",
      "original_language": "en",
      "original_title": "The First Purge",
      "genre_ids": [
        28,
        27,
        878,
        53
      ],
      "backdrop_path": "/dnaitaoCh8MftfYEVnprcuYExZp.jpg",
      "adult": false,
      "overview": "To push the crime rate below one percent for the rest of the year, the New Founding Fathers of America test a sociological theory that vents aggression for one night in one isolated community. But when the violence of oppressors meets the rage of the others, the contagion will explode from the trial-city borders and spread across the nation.",
      "release_date": "2018-07-04"
    },
    {
      "vote_count": 55,
      "id": 345887,
      "video": false,
      "vote_average": 6,
      "title": "The Equalizer 2",
      "popularity": 44.441,
      "poster_path": "/cQvc9N6JiMVKqol3wcYrGshsIdZ.jpg",
      "original_language": "en",
      "original_title": "The Equalizer 2",
      "genre_ids": [
        53,
        28,
        80
      ],
      "backdrop_path": "/a24i4Qw6qFTtkFLQsncv8WPwevj.jpg",
      "adult": false,
      "overview": "Robert McCall returns to deliver his special brand of vigilante justice -- but how far will he go when it's someone he loves?",
      "release_date": "2018-07-19"
    },
    {
      "vote_count": 62,
      "id": 433498,
      "video": false,
      "vote_average": 8.1,
      "title": "Papillon",
      "popularity": 28.458,
      "poster_path": "/ahF5c6vyP8HWMqIwlhecbRALkjq.jpg",
      "original_language": "en",
      "original_title": "Papillon",
      "genre_ids": [
        18,
        12
      ],
      "backdrop_path": "/vdWTsGEKrjClFex0oVlbnOx5vCz.jpg",
      "adult": false,
      "overview": "Henri Charriere, called \"Papillon\" for the butterfly tattoo on his chest, is convicted in Paris for a murder he did not commit. Sentenced to life imprisonment in the penal colony of French Guiana, he becomes obsessed with escaping. After planning and executing a series of treacherous yet failed attempts, he's sent to the notorious prison Devil's Island, a place from which no one has ever escaped.",
      "release_date": "2018-07-26"
    },
    {
      "vote_count": 1,
      "id": 507562,
      "video": false,
      "vote_average": 1,
      "title": "Crayon Shin-chan: Burst Serving! Kung Fu Boys ~Ramen Rebellion~",
      "popularity": 24.607,
      "poster_path": "/qjxtWgMzZbkViDqmbjXuuZCj1az.jpg",
      "original_language": "ja",
      "original_title": "映画クレヨンしんちゃん 爆盛！カンフーボーイズ ～拉麺大乱～",
      "genre_ids": [
        35,
        12,
        16
      ],
      "backdrop_path": null,
      "adult": false,
      "overview": "Kasukabe Defence Force, including Shin, will be active in Kasukabe's Yokohama Street",
      "release_date": "2018-04-13"
    },
    {
      "vote_count": 71,
      "id": 470878,
      "video": false,
      "vote_average": 7.3,
      "title": "I Can Only Imagine",
      "popularity": 24.559,
      "poster_path": "/veZszwMZu8d3WMU6TJX9sV5w1Y4.jpg",
      "original_language": "en",
      "original_title": "I Can Only Imagine",
      "genre_ids": [
        18,
        10751,
        10402
      ],
      "backdrop_path": "/9XjNaS2S0RJfjbUPDAzILPprU3r.jpg",
      "adult": false,
      "overview": "Growing up in Texas, Bart Millard suffers physical and emotional abuse at the hands of his father. His childhood and relationship with his dad inspires him to write the hit song \"I Can Only Imagine\" as singer of the Christian band MercyMe.",
      "release_date": "2018-03-08"
    },
    {
      "vote_count": 4,
      "id": 505058,
      "video": false,
      "vote_average": 5.6,
      "title": "Unfriended: Dark Web",
      "popularity": 21.564,
      "poster_path": "/q27yNUaEt6ohcQMEVHwvPaoKBT8.jpg",
      "original_language": "en",
      "original_title": "Unfriended: Dark Web",
      "genre_ids": [
        27
      ],
      "backdrop_path": "/sl5Zlecwsu0tWkAliUxartbpaav.jpg",
      "adult": false,
      "overview": "​When a 20-something finds a cache of hidden files on his new laptop, he and his friends are unwittingly thrust into the depths of the dark web.  They soon discover someone has been watching their every move and will go to unimaginable lengths to protect the dark web.",
      "release_date": "2018-07-19"
    },
    {
      "vote_count": 5,
      "id": 345940,
      "video": false,
      "vote_average": 0,
      "title": "The Meg",
      "popularity": 20.909,
      "poster_path": "/xqECHNvzbDL5I3iiOVUkVPJMSbc.jpg",
      "original_language": "en",
      "original_title": "The Meg",
      "genre_ids": [
        28,
        878,
        53,
        27
      ],
      "backdrop_path": "/ibKeXahq4JD63z6uWQphqoJLvNw.jpg",
      "adult": false,
      "overview": "A deep sea submersible pilot revisits his past fears in the Mariana Trench, and accidentally unleashes the seventy foot ancestor of the Great White Shark believed to be extinct.",
      "release_date": "2018-08-09"
    },
    {
      "vote_count": 0,
      "id": 474395,
      "video": false,
      "vote_average": 0,
      "title": "Teen Titans Go! To the Movies",
      "popularity": 20.317,
      "poster_path": "/AiEuNw3Lg0PIPNUQ3PIWWElwGcY.jpg",
      "original_language": "en",
      "original_title": "Teen Titans Go! To the Movies",
      "genre_ids": [
        10751,
        16
      ],
      "backdrop_path": "/fYhFxoU7RCsGv3k8UKg6xeO1bQW.jpg",
      "adult": false,
      "overview": "When the Teen Titans go to the big screen, they go big! Teen Titans GO! to the Movies finds our egocentric, wildly satirical superheroes in their first feature film extravaganza—a fresh, gleefully clever, kid-appropriately crass and tongue-in-cheek play on the superhero genre, complete with musical numbers.",
      "release_date": "2018-07-27"
    },
    {
      "vote_count": 15,
      "id": 385360,
      "video": false,
      "vote_average": 4.4,
      "title": "Billionaire Boys Club",
      "popularity": 18.988,
      "poster_path": "/7EpC1etIcUQxqPnBz0CpHLp3evv.jpg",
      "original_language": "en",
      "original_title": "Billionaire Boys Club",
      "genre_ids": [
        18,
        53
      ],
      "backdrop_path": "/2L2zBStcmAzBKDECQ9axRJmRx6U.jpg",
      "adult": false,
      "overview": "Led by their fellow preppie friend Joe Hunt, a group of wealthy boys in Los Angeles during the early 1980s establish a get rich quick scam that turns deadly.",
      "release_date": "2018-07-19"
    },
    {
      "vote_count": 0,
      "id": 506763,
      "video": false,
      "vote_average": 0,
      "title": "Detective Dee: The Four Heavenly Kings",
      "popularity": 18.399,
      "poster_path": "/hhJhgOsSIcN5RiRS8js4mv7K3iA.jpg",
      "original_language": "zh",
      "original_title": "狄仁杰之四大天王",
      "genre_ids": [
        9648,
        14,
        12
      ],
      "backdrop_path": null,
      "adult": false,
      "overview": "Dee, the detective serving Chinese empress Wu Zetian, is called upon to investigate a series of strange events in Loyang, including the appearance of mysterious warriors wearing Chiyou ghost masks, foxes that speak human language and the pillar sculptures in the palace coming alive.",
      "release_date": "2018-07-27"
    },
    {
      "vote_count": 20,
      "id": 448776,
      "video": false,
      "vote_average": 7.3,
      "title": "A Prayer Before Dawn",
      "popularity": 17.625,
      "poster_path": "/73KrcLh1DpnBP3HwGpqoUUwKWF4.jpg",
      "original_language": "en",
      "original_title": "A Prayer Before Dawn",
      "genre_ids": [
        18,
        28,
        80
      ],
      "backdrop_path": "/tyaVwOLIpAzZFP0qmXm2VZhYkxZ.jpg",
      "adult": false,
      "overview": "Based on the true life experience of Billy Moore who survived his Thai prison ordeal by becoming a Muay Thai boxing champion.",
      "release_date": "2018-06-20"
    },
    {
      "vote_count": 134,
      "id": 397722,
      "video": false,
      "vote_average": 6.4,
      "title": "Thoroughbreds",
      "popularity": 17.51,
      "poster_path": "/pIxZzTfITqBpZxbIGsV01DcoHsT.jpg",
      "original_language": "en",
      "original_title": "Thoroughbreds",
      "genre_ids": [
        18,
        53
      ],
      "backdrop_path": "/iKSONLvFh10sWSFBrixGLdgvh3V.jpg",
      "adult": false,
      "overview": "Two teenage girls in suburban Connecticut rekindle their unlikely friendship after years of growing apart. In the process, they learn that neither is what she seems to be, and that a murder might solve both of their problems.",
      "release_date": "2018-03-09"
    },
    {
      "vote_count": 0,
      "id": 454992,
      "video": false,
      "vote_average": 0,
      "title": "The Spy Who Dumped Me",
      "popularity": 16.444,
      "poster_path": "/tpPERI5i6yjT73jYWyZ9iWltQ9L.jpg",
      "original_language": "en",
      "original_title": "The Spy Who Dumped Me",
      "genre_ids": [
        28,
        35
      ],
      "backdrop_path": "/9CqzJn0nLaDNM6QWfGkuox2Oi93.jpg",
      "adult": false,
      "overview": "Audrey and Morgan are best friends who unwittingly become entangled in an international conspiracy when one of the women discovers the boyfriend who dumped her was actually a spy.",
      "release_date": "2018-08-02"
    },
    {
      "vote_count": 17,
      "id": 347866,
      "video": false,
      "vote_average": 6.2,
      "title": "Hot Summer Nights",
      "popularity": 16.274,
      "poster_path": "/gsWdYsXkpJx2CYkveEw779O5eMg.jpg",
      "original_language": "en",
      "original_title": "Hot Summer Nights",
      "genre_ids": [
        18
      ],
      "backdrop_path": "/8DsxZGG7FEr9fIAIVVHZB7NhyxB.jpg",
      "adult": false,
      "overview": "A teen winds up in over his head while dealing drugs with a rebellious partner and chasing the young man's enigmatic sister during the summer of 1991 that he spends in Cape Cod, Massachusetts.",
      "release_date": "2018-07-27"
    },
    {
      "vote_count": 44,
      "id": 497814,
      "video": false,
      "vote_average": 6.3,
      "title": "Breaking In",
      "popularity": 15.645,
      "poster_path": "/bKH7H4f5LPBQ5KOmHPcYtxCo7Od.jpg",
      "original_language": "en",
      "original_title": "Breaking In",
      "genre_ids": [
        53,
        80,
        28
      ],
      "backdrop_path": "/aEitmeLoFACS2hUEJSo1cDyWosn.jpg",
      "adult": false,
      "overview": "Shaun Russell takes her son and daughter on a weekend getaway to her late father's secluded, high-tech vacation home in the countryside. The family soon gets an unwelcome surprise when four men break into the house to find hidden money. After managing to escape, Shaun must now figure out a way to turn the tables on the desperate thieves and save her captive children.",
      "release_date": "2018-05-05"
    },
    {
      "vote_count": 137,
      "id": 417261,
      "video": false,
      "vote_average": 7.1,
      "title": "Forever My Girl",
      "popularity": 15.248,
      "poster_path": "/hcushpAgo51nTpBAuTygLxiJ80h.jpg",
      "original_language": "en",
      "original_title": "Forever My Girl",
      "genre_ids": [
        10749,
        18,
        10402
      ],
      "backdrop_path": "/tUJTaWlDbdC5kTov5zFVCWfCzGO.jpg",
      "adult": false,
      "overview": "After being gone for a decade, a country star returns home to the love he left behind.",
      "release_date": "2018-01-26"
    },
    {
      "vote_count": 35,
      "id": 432301,
      "video": false,
      "vote_average": 6.2,
      "title": "Chappaquiddick",
      "popularity": 14.252,
      "poster_path": "/kkTD7ufZd7AqAnZP5IMnrQXKRpM.jpg",
      "original_language": "en",
      "original_title": "Chappaquiddick",
      "genre_ids": [
        18,
        53,
        36
      ],
      "backdrop_path": "/kZZueScWeQrhHWipeyVp5tflle3.jpg",
      "adult": false,
      "overview": "Ted Kennedy's life and political career become derailed in the aftermath of a fatal car accident in 1969 that claims the life of a young campaign strategist, Mary Jo Kopechne.",
      "release_date": "2018-04-06"
    }
  ],
  "page": 1,
  "total_results": 196,
  "dates": {
    "maximum": "2018-08-21",
    "minimum": "2018-08-02"
  },
  "total_pages": 10
}